Exercises Chapter 2
…
My prediction is Green because obs 5 shows the lowest euclidian distance and Y(obs = 5) = Green.

My prediction is Red because 2 out of those 3 obs with lowest euclidian distance have Y = Red.

We would expect that the best value of K is rather low, because this allows for more variance in the predictions.

Applied

College <- as_tibble(College)

College %>%
  rownames_to_column(var = "University")
#> # A tibble: 777 x 19
#>    University  Private  Apps Accept Enroll Top10perc Top25perc F.Undergrad
#>    <chr>       <fct>   <dbl>  <dbl>  <dbl>     <dbl>     <dbl>       <dbl>
#>  1 Abilene Ch~ Yes      1660   1232  721        23.0      52.0        2885
#>  2 Adelphi Un~ Yes      2186   1924  512        16.0      29.0        2683
#>  3 Adrian Col~ Yes      1428   1097  336        22.0      50.0        1036
#>  4 Agnes Scot~ Yes       417    349  137        60.0      89.0         510
#>  5 Alaska Pac~ Yes       193    146   55.0      16.0      44.0         249
#>  6 Albertson ~ Yes       587    479  158        38.0      62.0         678
#>  7 Albertus M~ Yes       353    340  103        17.0      45.0         416
#>  8 Albion Col~ Yes      1899   1720  489        37.0      68.0        1594
#>  9 Albright C~ Yes      1038    839  227        30.0      63.0         973
#> 10 Alderson-B~ Yes       582    498  172        21.0      44.0         799
#> # ... with 767 more rows, and 11 more variables: P.Undergrad <dbl>,
#> #   Outstate <dbl>, Room.Board <dbl>, Books <dbl>, Personal <dbl>,
#> #   PhD <dbl>, Terminal <dbl>, S.F.Ratio <dbl>, perc.alumni <dbl>,
#> #   Expend <dbl>, Grad.Rate <dbl>
…
